%!PS-Adobe-2.0
%%Title: /tmp/xfig-export024690
%%Creator: fig2dev Version 2.1.8 Patchlevel 0
%%CreationDate: Thu Jun 22 10:22:31 1995
%%For: bsmith@@eagle.mcs.anl.gov (Barry Smith)
%%Orientation: Landscape
%%BoundingBox: 29 49 583 742
%%Pages: 1
%%EndComments
%%BeginDocument: 
/$F2psDict 200 dict def 
$F2psDict begin
$F2psDict /mtrx matrix put
/l {lineto} bind def
/m {moveto} bind def
/s {stroke} bind def
/n {newpath} bind def
/gs {gsave} bind def
/gr {grestore} bind def
/clp {closepath} bind def
/graycol {dup dup currentrgbcolor 4 -2 roll mul 4 -2 roll mul
4 -2 roll mul setrgbcolor} bind def
/col-1 {} def
/col0 {0 0 0 setrgbcolor} bind def
/col1 {0 0 1 setrgbcolor} bind def
/col2 {0 1 0 setrgbcolor} bind def
/col3 {0 1 1 setrgbcolor} bind def
/col4 {1 0 0 setrgbcolor} bind def
/col5 {1 0 1 setrgbcolor} bind def
/col6 {1 1 0 setrgbcolor} bind def
/col7 {1 1 1 setrgbcolor} bind def
/col8 {.68 .85 .9 setrgbcolor} bind def
/col9 {0 .39 0 setrgbcolor} bind def
/col10 {.65 .17 .17 setrgbcolor} bind def
/col11 {1 .51 0 setrgbcolor} bind def
/col12 {.63 .13 .94 setrgbcolor} bind def
/col13 {1 .75 .8 setrgbcolor} bind def
/col14 {.7 .13 .13 setrgbcolor} bind def
/col15 {1 .84 0 setrgbcolor} bind def
/Red   { 1 0 0 setrgbcolor} bind def
/Green { 0 1 0 setrgbcolor} bind def
/Blue { 0 0 1 setrgbcolor} bind def
/LightBlue {  0 1 1 setrgbcolor} bind def
/Purple { 1 0 1 setrgbcolor} bind def
/Black { 0 0 0 setrgbcolor} bind def
/LimeGreen { 0.1961 0.8039 0.1961 setrgbcolor} bind def
/Orange { 1 0.6471 0 setrgbcolor} bind def
/Violet { 0.9333 0.5098 0.9333 setrgbcolor} bind def
/Pink { 1 0.7529 0.7961 setrgbcolor} bind def
/Gold { 1 .8431 0  setrgbcolor} bind def
/Brown { 0.6471 0.1647 0.1647 setrgbcolor} bind def
/MidnightBlue { 0.0980 0.0980 0.4392 setrgbcolor} bind def
/SteelBlue { 0.2745 0.5098 0.7059 setrgbcolor} bind def
/Orchid { 0.8549 0.4392 0.8392 setrgbcolor} bind def
/Cyan { 0 1 1 setrgbcolor} bind def
/Yellow { 1 1 0 setrgbcolor} bind def
/Aquamarine { 0.4980 1.0000 0.8314 setrgbcolor} bind def
/DarkGreen { 0 .3922 0 setrgbcolor} bind def
/DimGrey { 0.4118 0.4118 0.4118 setrgbcolor} bind def
/Navy {  0 0 0.5020 setrgbcolor}  bind def
/Salmon { 0.9804 0.5020 0.4471 setrgbcolor} bind def
/DrawEllipse {
	/endangle exch def
	/startangle exch def
	/yrad exch def
	/xrad exch def
	/y exch def
	/x exch def
	/savematrix mtrx currentmatrix def
	x y translate xrad yrad scale 0 0 1 startangle endangle arc
	savematrix setmatrix
	} def

	end
/$F2psBegin {$F2psDict begin /$F2psEnteredState save def} def
/$F2psEnd {$F2psEnteredState restore end} def

$F2psBegin
Green
0 setlinecap 0 setlinejoin
7.0 22.5 translate 90 rotate 0.900 -0.900 scale
0.500 setlinewidth
	[4.000000] 0 setdash
% Polyline
n 179 569 m 369 569 l gs  s gr
	[] 0 setdash
% Polyline

n 369 599 m 369 539 l  179 539 l  179 599 l  clp gs col-1 s gr
/Times-Roman findfont 20.00 scalefont setfont
274 590 m 
gs 1 -1 scale (Assembler Languages) dup stringwidth pop 2 div neg 0 rmoveto   show gr
/Times-Roman findfont 20.00 scalefont setfont
274 559 m 
gs 1 -1 scale (Fortran, C, C++) dup stringwidth pop 2 div neg 0 rmoveto   show gr
% Polyline
n 329 639 m 329 609 l  224 609 l  224 639 l  clp gs  s gr
/Times-Roman findfont 20.00 scalefont setfont
274 629 m 
gs 1 -1 scale (Hardware) dup stringwidth pop 2 div neg 0 rmoveto   show gr
% Polyline
Red
n 69 139 m 39 169 l  59 169 l  59 619 l  79 619 l  79 169 l 
 99 169 l  69 139 l  69 139 l gs 0.70 setgray Orange fill gr
gs col-1 s gr
Orange
/Times-Roman findfont 16.00 scalefont setfont
69 99 m 
gs 1 -1 scale (Level of) dup stringwidth pop 2 div neg 0 rmoveto   show gr
/Times-Roman findfont 16.00 scalefont setfont
69 121 m 
gs 1 -1 scale (Abstraction) dup stringwidth pop 2 div neg 0 rmoveto   show gr
% Polyline
Blue
n 259 214 m 259 169 l  129 169 l  129 214 l  clp gs col-1 s gr
/Times-Roman findfont 20.00 scalefont setfont
144 199 m 
gs 1 -1 scale (PDE Solvers)  show gr
% Polyline
Green
n 204 529 m 204 494 l  134 494 l  134 529 l  clp gs col-1 s gr
/Times-Roman findfont 20.00 scalefont setfont
169 519 m 
gs 1 -1 scale (BLAS) dup stringwidth pop 2 div neg 0 rmoveto  show gr
% Polyline
Green
n 334 529 m 334 494 l  234 494 l  234 529 l  clp gs col-1 s gr
/Times-Roman findfont 20.00 scalefont setfont
284 519 m 
gs 1 -1 scale (LAPACK) dup stringwidth pop 2 div neg 0 rmoveto  show gr
% Polyline
Blue
n 274 459 m 274 414 l  144 414 l  144 459 l  clp gs  s gr
/Times-Roman findfont 20.00 scalefont setfont
204 444 m 
gs 1 -1 scale (Matrices) dup stringwidth pop 2 div neg 0 rmoveto  show gr
% Polyline OK
n 509 464 m 509 419 l  379 419 l  379 464 l  clp gs  s gr
/Times-Roman findfont 20.00 scalefont setfont
444 449 m 
gs 1 -1 scale (Vectors) dup stringwidth pop 2 div neg 0 rmoveto  show gr
% Polyline
n 744 464 m 744 419 l  614 419 l  614 464 l  clp gs  s gr
/Times-Roman findfont 20.00 scalefont setfont
634 449 m 
gs 1 -1 scale (Index Sets) col-1 show gr
% Polyline
n 579 399 m 579 349 l  429 349 l  429 399 l  clp gs  s gr
/Times-Roman findfont 16.00 scalefont setfont
449 389 m 
gs 1 -1 scale (\(Preconditioners\)) col-1 show gr
/Times-Roman findfont 20.00 scalefont setfont
494 374 m 
gs 1 -1 scale (PC) col-1 show gr
	[4.000000] 0 setdash
% Polyline
Green
%n 504 579 m 504 544 l  414 544 l  414 579 l  clp gs col-1 s gr
%	[] 0 setdash
%/Times-Roman findfont 20.00 scalefont setfont
%459 569 m 
%gs 1 -1 scale (BLACS) dup stringwidth pop 2 div neg 0 rmoveto   show gr
%	[4.000000] 0 setdash
% Polyline OK
%n 519 529 m 519 494 l  389 494 l  389 529 l  clp gs  s gr
%	[] 0 setdash
%/Times-Roman findfont 20.00 scalefont setfont
%399 519 m 
%gs 1 -1 scale (ScaLAPACK) col-1 show gr
%	[4.000000] 0 setdash
% Polyline
n 569 539 m 739 539 l gs col-1 s gr
	[] 0 setdash
% Polyline
n 739 589 m 739 494 l  569 494 l  569 589 l  clp gs col-1 s gr
/Times-Roman findfont 20.00 scalefont setfont
654 570 m 
gs 1 -1 scale (System Software) dup stringwidth pop 2 div neg 0 rmoveto  show gr
Red
/Times-Roman findfont 20.00 scalefont setfont
634 524 m 
gs 1 -1 scale (MPI) col-1 show gr
% Ellipse
n 399 144 96 31 0 360 DrawEllipse gs col-1 s gr
/Times-Roman findfont 20.00 scalefont setfont
399 149 m 
gs 1 -1 scale (Application Codes) dup stringwidth pop 2 div neg 0 rmoveto  show gr
n 399 189 m 399 189 l gs col-1 s gr
n 399 189 m 399 189 l gs col-1 s gr
n 399 176 m 399 176 l gs col-1 s gr
n 399 176 m 399 176 l gs col-1 s gr
% Polyline OK
n 459 169 m 469 183 l gs col-1 s gr
n 465.978 175.328 m 469.000 183.000 l 462.723 177.653 l gs 2 setlinejoin col-1 s gr
% Polyline
n 399 176 m 399 192 l gs col-1 s gr
n 401.000 184.000 m 399.000 192.000 l 397.000 184.000 l gs 2 setlinejoin col-1 s gr
% Polyline 
n 339 169 m 329 184 l gs col-1 s gr
n 335.102 178.453 m 329.000 184.000 l 331.774 176.234 l gs 2 setlinejoin col-1 s gr
/Times-Roman findfont 16.00 scalefont setfont
289 389 m 
Blue
gs 1 -1 scale (\(Krylov Space Package\)) dup stringwidth pop 2 div neg 0 rmoveto  col-1 show gr
/Times-Roman findfont 20.00 scalefont setfont
239 279 m 
Blue
gs 1 -1 scale (SNES) dup stringwidth pop 2 div neg 0 rmoveto  col-1 show gr
% Polyline OK
n 354 309 m 354 254 l  124 254 l  124 309 l  clp gs col-1 s gr
/Times-Roman findfont 16.00 scalefont setfont
239 294 m 
gs 1 -1 scale (\(Nonlinear Equations Solvers\)) dup stringwidth pop 2 div neg 0 rmoveto  col-1 show gr
% Polyline OK
n 589 329 m 589 274 l  389 274 l  389 329 l  clp gs col-1 s gr
/Times-Roman findfont 20.00 scalefont setfont
489 299 m 
Blue
gs 1 -1 scale (SLES) dup stringwidth pop 2 div neg 0 rmoveto  col-1 show gr
/Times-Roman findfont 16.00 scalefont setfont
489 314 m 
gs 1 -1 scale (\(Linear Equations Solvers\)) dup stringwidth pop 2 div neg 0 rmoveto  col-1 show gr
% Polyline OK
n 749 374 m 749 324 l  644 324 l  644 374 l  clp gs col-1 s gr
/Times-Roman findfont 20.00 scalefont setfont
674 354 m 
Blue
gs 1 -1 scale (Draw) col-1 show gr
/Times-Roman findfont 16.00 scalefont setfont
684 204 m 
Red
gs 1 -1 scale (William Gropp) dup stringwidth pop 2 div neg 0 rmoveto  col-1 show gr
/Times-Roman findfont 16.00 scalefont setfont
684 238 m 
gs 1 -1 scale (Barry Smith) dup stringwidth pop 2 div neg 0 rmoveto  col-1 show gr
n 209 24 m 209 24 l gs col-1 s gr
2.000 setlinewidth
% Polyline
Blue
n 799 479 m 99 479 l gs col-1 s gr
0.500 setlinewidth
% Polyline OK
Green
n 774 639 m 774 604 l  534 604 l  534 639 l  clp gs col-1 s gr
% Polyline OK
Blue
n 374 399 m 374 349 l  204 349 l  204 399 l  clp gs col-1 s gr
% Polyline OK
n 564 249 m 564 199 l  394 199 l  394 249 l  clp gs col-1 s gr
% Polyline
%
% Begin Imported EPS File: argonne.ps
%
Red
n gs
634 49 translate
0.769231 -0.764286 scale
0 -140 translate
-240 -380 translate
save
% EPS file follows:


/circtextdict 16 dict def
circtextdict begin

    % return half the angle spanned by a string
    /findhalfangle { % string => angle
	stringwidth pop 2 div
	2 xradius mul pi mul div 360 mul
    } def

    % draw one character and then rotate to next position (text reads cw)
    /cwplacechar { % char => -
	/char exch def
	/halfangle char findhalfangle def
	gsave
	    halfangle neg rotate
	    radius 0 translate
	    -90 rotate
	    char stringwidth pop 2 div neg 0 moveto
	    char show
	grestore
	halfangle 2 mul neg rotate
    } def

    % draw one character and then rotate to next position (text reads ccw)
    /ccwplacechar { % char => -
	/char exch def
	/halfangle char findhalfangle def
	gsave
	    halfangle rotate
	    radius ptsize fudge sub add 0 translate
	    90 rotate
	    char stringwidth pop 2 div neg 0 moveto
	    char show
	grestore
	halfangle 2 mul rotate
    } def

    /pi 3.1415923 def

end

/cwcircletext { % string fontsize centerangle radius => -
    circtextdict begin
	/radius exch def
	/centerangle exch def
	/ptsize exch def
	/str exch def
	/xradius radius ptsize 4 div add def

	gsave
	    centerangle str findhalfangle add rotate
	    str {
		/charcode exch def
		( ) dup 0 charcode put cwplacechar
	    } forall
	grestore
    end
} def

/ccwcircletext { % string fontsize fudge centerangle radius => -
    circtextdict begin
	/radius exch def
	/centerangle exch def
	/fudge exch def    % fudge factor; set to zero and then adjust
	/ptsize exch def
	/str exch def
	/xradius radius ptsize 4 div add def

	gsave
	    centerangle str findhalfangle sub rotate
	    str {
		/charcode exch def
		( ) dup 0 charcode put ccwplacechar
	    } forall
	grestore
    end
} def

/drawcenter { % side width outsider insider circrad circdy => -
    gsave 
    30 dict begin
	/circdy exch def	% vertical offset for circle
	/circrad exch def	% radius of circle
	/insider exch def	% radius of turn for inside line (in arrow)
	/outsider exch def	% radius of turn for outside line (in arrow)
	/width exch def		% distance between inside and outside lines
	/side exch def		% length of one (out)side of the arrow
	/root3 3 sqrt def

	/y0 root3 6 div side mul neg def
	/y1 y0 width add def
	/y2 y1 2 mul neg def
	/y3 y2 width 3 mul 4 div add def
	/y4 y0 2 mul neg def

	/dx0 root3 4 div width mul def
	/dx1 side 2 div width root3 mul sub def
	/dx2 dx1 width root3 div add def
	/dx3 side width root3 mul sub 2 div def
	/dx4 side 2 div def

	% inside line

	width 2 div neg y1 moveto
	dx1 neg y1 0 y2 insider arcto pop pop pop pop
	0 y2 dx1 y1 insider arcto pop pop pop pop
	dx1 y1 width 2 div y1 insider arcto pop pop pop pop
	width 2 div y1 lineto

	% outside line

	width 2 div y0 lineto
	dx4 y0 0 y4 outsider arcto pop pop pop pop
	0 y4 dx3 neg y1 outsider arcto pop pop pop pop
	dx4 neg y0 dx2 y0 outsider arcto pop pop pop pop
	width 2 div neg y0 lineto

	closepath
	stroke

	% circle

	0 circdy circrad 0 360 arc closepath stroke
    end
    grestore
} def

/Helvetica-Bold findfont 10 scalefont setfont
306 448 translate
(ARGONNE    NATIONAL    LABORATORY) 10 90 55 cwcircletext
(UNIVERSITY    OF    CHICAGO) 10 3 -90 55 ccwcircletext
/Symbol findfont 10 scalefont setfont
(\267                                                            \267)
10 3 -90 55 ccwcircletext
104 18 10 1 10 -2 drawcenter


restore gr
Red
%
% End Imported EPS File: argonne.ps
%
% Polyline OK
n 769 254 m 769 39 l  599 39 l  599 254 l  clp gs col-1 s gr
Black
/Times-Bold findfont 24.00 scalefont setfont
339 69 m 
gs 1 -1 scale (PETSc 2.0) col-1 show gr
/Times-Roman findfont 18.00 scalefont setfont
254 94 m 
gs 1 -1 scale (http://www.mcs.anl.gov/petsc/petsc.html) col-1 show gr
Green
/Times-Roman findfont 20.00 scalefont setfont
654 629 m 
gs 1 -1 scale (Message Passing Hardware) dup stringwidth pop 2 div neg 0 rmoveto  show gr
/Times-Roman findfont 20.00 scalefont setfont
289 369 m
Blue 
gs 1 -1 scale (KSP) dup stringwidth pop 2 div neg 0 rmoveto  col-1 show gr
/Times-Roman findfont 20.00 scalefont setfont
469 219 m 
gs 1 -1 scale (TS) dup stringwidth pop 2 div neg 0 rmoveto  col-1 show gr
/Times-Roman findfont 16.00 scalefont setfont
420 239 m 
gs 1 -1 scale (\(Time Stepping\)) col-1 show gr
/Times-Roman findfont 16.00 scalefont setfont
644 184 m 
Red
gs 1 -1 scale (Satish Balay)  show gr
/Times-Roman findfont 16.00 scalefont setfont
684 221 m 
gs 1 -1 scale (Lois Curfman McInnes) dup stringwidth pop 2 div neg 0 rmoveto  col-1 show gr
showpage
$F2psEnd
%%EndDocument
